Transit Data Analysis – STA 9750 2024 Submission Material
…
  USAGE_AND_FINANCIALS <- left_join(USAGE_2022_ANNUAL,
                                    FINANCIALS,
                                    join_by(`NTD ID`, Mode)) |> drop_na()

  sample_n(USAGE_AND_FINANCIALS, 1000)

# A tibble: 1,000 × 9
   `NTD ID` Agency  metro_area Mode  Passenger_Trips Vehicle_Miles `Agency Name`
      <dbl> <chr>   <chr>      <chr>           <dbl>         <dbl> <chr>        
 1    90006 Santa … Santa Cru… Moto…         2898399       2191022 Santa Cruz M…
 2    30025 County… Scranton,… Moto…          628127       2151774 County of La…
 3       40 Centra… Seattle--… Comm…         6852694      19761258 Central Puge…
 4    60130 Alamo … New Braun… Dema…          114591       1303153 Alamo Area C…
 5    50050 Indian… Indianapo… Dema…          149143       1560965 Indianapolis…
 6    30088 County… Waldorf, … Dema…           48848        443843 County Commi…
 7    10005 Lowell… Boston, M… Dema…           81352        508108 Lowell Regio…
 8    50001 City o… Appleton,… Moto…          647941       1682706 City of Appl…
 9    40071 City o… Huntsvill… Moto…          556479        789546 City of Hunt…
10    80106 North … Fort Coll… Vanp…           12462        368136 North Front …
# ℹ 990 more rows
# ℹ 2 more variables: `Total Fares` <dbl>, Expenses <dbl>
…
